数据处理（Transform） – Zoey
…
数据处理（Transform）

1 逻辑向量（logical vectors）

1.1 数值比较（Numeric comparison)

数值比较是最常见的生成逻辑向量的方式，比较运算符号包括：>, <, >=, <=, ==, !=，常和filter()搭配使用。

flights |> 
  filter(dep_delay > 60)

# A tibble: 26,581 × 19
    year month   day dep_time sched_dep_time dep_delay arr_time sched_arr_time
   <int> <int> <int>    <int>          <int>     <dbl>    <int>          <int>
 1  2013     1     1      811            630       101     1047            830
 2  2013     1     1      826            715        71     1136           1045
 3  2013     1     1      848           1835       853     1001           1950
 4  2013     1     1      957            733       144     1056            853
 5  2013     1     1     1114            900       134     1447           1222
 6  2013     1     1     1120            944        96     1331           1213
 7  2013     1     1     1301           1150        71     1518           1345
 8  2013     1     1     1337           1220        77     1649           1531
 9  2013     1     1     1400           1250        70     1645           1502
10  2013     1     1     1505           1310       115     1638           1431
# ℹ 26,571 more rows
# ℹ 11 more variables: arr_delay <dbl>, carrier <chr>, flight <int>,
#   tailnum <chr>, origin <chr>, dest <chr>, air_time <dbl>, distance <dbl>,
#   hour <dbl>, minute <dbl>, time_hour <dttm>
…
NA可以理解为未知（UNKNOWN）,与任何值（包括NA）比较的结果都是NA。如果要判断一个值是否为NA，应该使用is.na()函数。而不是variable == NA。

NA > 5

[1] NA

# 不知道 是否等于 不知道 等于 不知道
NA == NA

[1] NA

flights |> 
  filter(is.na(dep_delay))

# A tibble: 8,255 × 19
    year month   day dep_time sched_dep_time dep_delay arr_time sched_arr_time
   <int> <int> <int>    <int>          <int>     <dbl>    <int>          <int>
 1  2013     1     1       NA           1630        NA       NA           1815
 2  2013     1     1       NA           1935        NA       NA           2240
 3  2013     1     1       NA           1500        NA       NA           1825
 4  2013     1     1       NA            600        NA       NA            901
 5  2013     1     2       NA           1540        NA       NA           1747
 6  2013     1     2       NA           1620        NA       NA           1746
 7  2013     1     2       NA           1355        NA       NA           1459
 8  2013     1     2       NA           1420        NA       NA           1644
 9  2013     1     2       NA           1321        NA       NA           1536
10  2013     1     2       NA           1545        NA       NA           1910
# ℹ 8,245 more rows
# ℹ 11 more variables: arr_delay <dbl>, carrier <chr>, flight <int>,
#   tailnum <chr>, origin <chr>, dest <chr>, air_time <dbl>, distance <dbl>,
#   hour <dbl>, minute <dbl>, time_hour <dttm>
…
%in%操作符是一个非常有用的工具，可以用来检查一个值是否在一个向量中。它的语法是：x %in% y，返回一个长度与x相同的逻辑向量，表示x中的每个元素是否在y中出现过。注意，NA在%in%和布尔比较中结果不一致，NA %in% c(NA, 1)返回TRUE，而NA == NA返回NA。

1.2.3 对逻辑向量进行统计汇总（Logical summaries）

在R里，TRUE会被当做1，FALSE会被当做0。因此，我们可以对逻辑向量进行统计汇总，比如求和、平均值等。比如下面的例子，我们可以计算飞机起飞延误不超过1小时的比例。

flights |> 
  group_by(year, month, day) |>
  summarise(
    prop = mean(dep_delay <= 60, na.rm = TRUE),
    .groups = "drop"
  )

# A tibble: 365 × 4
    year month   day  prop
   <int> <int> <int> <dbl>
 1  2013     1     1 0.939
 2  2013     1     2 0.914
 3  2013     1     3 0.941
 4  2013     1     4 0.953
 5  2013     1     5 0.964
 6  2013     1     6 0.959
 7  2013     1     7 0.956
 8  2013     1     8 0.975
 9  2013     1     9 0.986
10  2013     1    10 0.977
# ℹ 355 more rows
…
1.2.4 逻辑向量的子集（Subsetting with logical vectors）

逻辑向量可以用来对数据进行子集化，在实际中非常常见。比如下面的例子，我们可以得到飞机延误的记录。

flights |> 
  filter(arr_delay > 0) |> 
  group_by(year, month, day) |>
  summarise(
    behind = mean(dep_delay, na.rm = TRUE),
    n = n(),
    .groups = "drop"
  )

# A tibble: 365 × 5
    year month   day behind     n
   <int> <int> <int>  <dbl> <int>
 1  2013     1     1   22.4   461
 2  2013     1     2   24.5   535
 3  2013     1     3   22.3   460
 4  2013     1     4   30.4   297
 5  2013     1     5   20.8   238
 6  2013     1     6   18.0   381
 7  2013     1     7   26.5   243
 8  2013     1     8   15.1   275
 9  2013     1     9   15.6   287
10  2013     1    10   24.9   220
# ℹ 355 more rows

上面的例子计算了飞机延误的时间平均值，但如果我们同时也想得到飞机提前的平均值呢？下面的例子展示了如何使用条件子集来计算飞机延误和提前的平均值。

# 平均延误时间
flights |> 
  group_by(year, month, day) |>
  summarise(
    behind = mean(dep_delay[dep_delay > 0], na.rm = TRUE),
    ahead = mean(dep_delay[dep_delay < 0], na.rm = TRUE),
    n = n(),
    .groups = "drop"
  )

# A tibble: 365 × 6
    year month   day behind ahead     n
   <int> <int> <int>  <dbl> <dbl> <int>
 1  2013     1     1   32.7 -4.26   842
 2  2013     1     2   32.6 -4.11   943
 3  2013     1     3   28.5 -4.28   914
 4  2013     1     4   26.2 -4.54   915
 5  2013     1     5   21.8 -4.34   720
 6  2013     1     6   22.0 -4.40   832
 7  2013     1     7   26.2 -4.71   933
 8  2013     1     8   21.2 -4.94   899
 9  2013     1     9   26.4 -5.24   902
10  2013     1    10   32.6 -5.29   932
# ℹ 355 more rows

# 延误航班占比
flights |> 
  group_by(year, month, day) |>
  summarise(
    behind = mean(dep_delay > 0, na.rm = TRUE),
    ahead = mean(dep_delay < 0, na.rm = TRUE),
    n = n(),
    .groups = "drop"
  )

# A tibble: 365 × 6
    year month   day behind ahead     n
   <int> <int> <int>  <dbl> <dbl> <int>
 1  2013     1     1  0.420 0.510   842
 2  2013     1     2  0.481 0.449   943
 3  2013     1     3  0.457 0.476   914
 4  2013     1     4  0.430 0.512   915
 5  2013     1     5  0.374 0.561   720
 6  2013     1     6  0.426 0.505   832
 7  2013     1     7  0.318 0.624   933
 8  2013     1     8  0.273 0.656   899
 9  2013     1     9  0.230 0.722   902
10  2013     1    10  0.206 0.730   932
# ℹ 355 more rows
…
[1] 1.23 4.50

x <- c("$1.23", "4,5")
parse_number(x)

[1]  1.23 45.00

2.2 计算频数（Counts）

count()函数可以用来计算频数

flights |>
  count(dest, sort = TRUE)

# A tibble: 105 × 2
   dest      n
   <chr> <int>
 1 ORD   17283
 2 ATL   17215
 3 LAX   16174
 4 BOS   15508
 5 MCO   14082
 6 CLT   14064
 7 SFO   13331
 8 FLL   12055
 9 MIA   11728
10 DCA    9705
# ℹ 95 more rows

# 如果你想要展示所有的数据，可以使用 |> print(n = Inf) 或|> View() 来查看完整的数据。

同时，使用group_by``(),summarize``()和n() 也能达到此目的，并且还能计算其他变量的汇总分析。

flights |>
  group_by(dest) |>
  summarise(
    n = n(),
    delay = mean(dep_delay, na.rm = TRUE),
    .groups = "drop"
  )

# A tibble: 105 × 3
   dest      n delay
   <chr> <int> <dbl>
 1 ABQ     254 13.7 
 2 ACK     265  6.46
 3 ALB     439 23.6 
 4 ANC       8 12.9 
 5 ATL   17215 12.5 
 6 AUS    2439 13.0 
 7 AVL     275  8.19
 8 BDL     443 17.7 
 9 BGR     375 19.5 
10 BHM     297 29.7 
# ℹ 95 more rows

n()函数只能在summarise()和mutate()中使用，与n()函数类似的还有n_distinct()函数，可以用来计算不同值的数量。

flights |> 
  group_by(dest) |>
  summarise(
    n = n(),
    n_distinct = n_distinct(carrier),
    .groups = "drop"
  )

# A tibble: 105 × 3
   dest      n n_distinct
   <chr> <int>      <int>
 1 ABQ     254          1
 2 ACK     265          1
 3 ALB     439          1
 4 ANC       8          1
 5 ATL   17215          7
 6 AUS    2439          6
 7 AVL     275          2
 8 BDL     443          2
 9 BGR     375          2
10 BHM     297          1
# ℹ 95 more rows
…
x2 <- c(1, 2)
y2 <- c(10, 20, 3)
x2 * y2

Warning in x2 * y2: longer object length is not a multiple of shorter object
length

[1] 10 40  3

回收规则同样应用于比较运算（>, <, ==等），会产生意外的结果如果使用==而不是%in%来检查一个值是否在一个向量中。

flights |> 
  filter(month == c(1, 2))

# A tibble: 25,977 × 19
    year month   day dep_time sched_dep_time dep_delay arr_time sched_arr_time
   <int> <int> <int>    <int>          <int>     <dbl>    <int>          <int>
 1  2013     1     1      517            515         2      830            819
 2  2013     1     1      542            540         2      923            850
 3  2013     1     1      554            600        -6      812            837
 4  2013     1     1      555            600        -5      913            854
 5  2013     1     1      557            600        -3      838            846
 6  2013     1     1      558            600        -2      849            851
 7  2013     1     1      558            600        -2      924            917
 8  2013     1     1      559            600        -1      941            910
 9  2013     1     1      559            600        -1      854            902
10  2013     1     1      600            600         0      837            825
# ℹ 25,967 more rows
# ℹ 11 more variables: arr_delay <dbl>, carrier <chr>, flight <int>,
#   tailnum <chr>, origin <chr>, dest <chr>, air_time <dbl>, distance <dbl>,
#   hour <dbl>, minute <dbl>, time_hour <dttm>
…
2.5 膜运算（Modular arithmetic）

%%和%/%运算符可以用来进行膜运算，%%返回除法的余数，而%/%返回除法的商的整数部分。在flights数据集中，我们可以使用膜运算来将变量sched_dep_time转换为小时和分钟的格式。

flights %>%
  mutate(
    dep_hour = sched_dep_time %/% 100,
    dep_minute = sched_dep_time %% 100
  )

# A tibble: 336,776 × 21
    year month   day dep_time sched_dep_time dep_delay arr_time sched_arr_time
   <int> <int> <int>    <int>          <int>     <dbl>    <int>          <int>
 1  2013     1     1      517            515         2      830            819
 2  2013     1     1      533            529         4      850            830
 3  2013     1     1      542            540         2      923            850
 4  2013     1     1      544            545        -1     1004           1022
 5  2013     1     1      554            600        -6      812            837
 6  2013     1     1      554            558        -4      740            728
 7  2013     1     1      555            600        -5      913            854
 8  2013     1     1      557            600        -3      709            723
 9  2013     1     1      557            600        -3      838            846
10  2013     1     1      558            600        -2      753            745
# ℹ 336,766 more rows
# ℹ 13 more variables: arr_delay <dbl>, carrier <chr>, flight <int>,
#   tailnum <chr>, origin <chr>, dest <chr>, air_time <dbl>, distance <dbl>,
#   hour <dbl>, minute <dbl>, time_hour <dttm>, dep_hour <dbl>,
#   dep_minute <dbl>
…
根据位置选择观测（Positions）

在summarize()中，我们可以使用first(x)、nth(x, n)和last(x)函数来根据位置选择观测。可以通过na_rm = TRUE参数来忽略NA值，通过order_by参数来指定排序变量，以便在选择观测时按照特定的顺序进行选择。若数据中没有特定位置的值时，也可以通过default参数来确定默认值。

# 当没有order_by参数时，first()、nth()和last()函数会按照数据的原始顺序来选择观测。也就是说，它们会选择每组中的第一个、第二个或最后一个观测，而不考虑任何特定的排序。
flights |> 
  group_by(year, month, day) |> 
  summarize(
    first = first(dep_delay, na_rm = TRUE),
    second = nth(dep_delay, 2, na_rm = TRUE),
    last = last(dep_delay, na_rm = TRUE),
    .groups = "drop"
  )

# A tibble: 365 × 6
    year month   day first second  last
   <int> <int> <int> <dbl>  <dbl> <dbl>
 1  2013     1     1     2      4    -3
 2  2013     1     2    43    156    -5
 3  2013     1     3    33    185   -10
 4  2013     1     4    26    141    -1
 5  2013     1     5    15    127    -2
 6  2013     1     6    17     -2    -4
 7  2013     1     7    50     -6     0
 8  2013     1     8    -6     -1    -8
 9  2013     1     9     3      9     3
10  2013     1    10     4     17    30
# ℹ 355 more rows

flights |> 
  group_by(year, month, day) |> 
  summarize(
    first = first(dep_delay, na_rm = TRUE, order_by = dep_delay),
    second = nth(dep_delay, 2, na_rm = TRUE, order_by = dep_delay),
    last = last(dep_delay, na_rm = TRUE, order_by = dep_delay),
    .groups = "drop"
  )

# A tibble: 365 × 6
    year month   day first second  last
   <int> <int> <int> <dbl>  <dbl> <dbl>
 1  2013     1     1   -15    -15   853
 2  2013     1     2   -13    -13   379
 3  2013     1     3   -13    -12   291
 4  2013     1     4   -19    -17   288
 5  2013     1     5   -16    -14   327
 6  2013     1     6   -15    -12   202
 7  2013     1     7   -17    -15   366
 8  2013     1     8   -16    -15   188
 9  2013     1     9   -17    -15  1301
10  2013     1    10   -17    -16  1126
# ℹ 355 more rows
…
